{
  "count": 100,
  "next": "https://api.rawg.io/api/games/4427/achievements?page=2",
  "previous": null,
  "results": [
    {
      "id": 997443,
      "name": "Test à l'acide",
      "description": "Gagnez 18 étoiles dans les épreuves de Protecteur",
      "image": "https://media.rawg.io/media/achievements/f7d/f7d4849fd71ac98298c7189f9c272ed7.jpg",
      "percent": "0.10"
    },
    {
      "id": 997442,
      "name": "Une faim de loup",
      "description": "Récupérez 50% de l'ADAM disponible dans toutes les épreuves de Protecteur",
      "image": "https://media.rawg.io/media/achievements/761/761afb93fbadec5f8bb136e37f421fcb.jpg",
      "percent": "0.10"
    },
    {
      "id": 998893,
      "name": "Ange gardien",
      "description": "Terminez toutes les épreuves de Protecteur",
      "image": "https://media.rawg.io/media/achievements/f79/f79358287e8bbd50774ca7d334e00607_Ewb4yGn.jpg",
      "percent": "0.10"
    },
    {
      "id": 973430,
      "name": "Ennemi de la famille",
      "description": "Finissez toutes les épreuves de Protecteur avec un rang A",
      "image": "https://media.rawg.io/media/achievements/d7e/d7e72f92795f01465480b8179da88d98.jpg",
      "percent": "0.10"
    },
    {
      "id": 969014,
      "name": "Épreuve du feu",
      "description": "Gagnez 36 étoiles dans les épreuves de Protecteur",
      "image": "https://media.rawg.io/media/achievements/98f/98f5546aecc3e39070108d59261bbb01.jpg",
      "percent": "0.10"
    },
    {
      "id": 100716,
      "name": "Test décisif",
      "description": "Gagnez 6 étoiles dans les épreuves de Protecteur",
      "image": "https://media.rawg.io/media/achievements/0f3/0f3a070bc678774f7de7ef7e33536cc8.jpg",
      "percent": "0.15"
    },
    {
      "id": 102997,
      "name": "Protecteur parfait",
      "description": "Récupérez 100% de l'ADAM dans une épreuve de Protecteur",
      "image": "https://media.rawg.io/media/achievements/fc0/fc04cb6d9559524f188ca0e545e8d7a5.jpg",
      "percent": "0.25"
    },
    {
      "id": 102998,
      "name": "Contre toute attente",
      "description": "Terminez le jeu en difficulté maximale.",
      "image": "https://media.rawg.io/media/achievements/cc9/cc96e2bf1b702606398003a97ba91f9d_H3cFKm9.jpg",
      "percent": "0.30"
    },
    {
      "id": 105928,
      "name": "Expert en recherches",
      "description": "Atteignez le dernier niveau de recherche sur les 9 sujets de recherche.",
      "image": "https://media.rawg.io/media/achievements/f03/f03e7bea081a8d3c97be53a860ec7aec.jpg",
      "percent": "0.50"
    },
    {
      "id": 105925,
      "name": "Collecte des déchets",
      "description": "Détruisez les 10 robots de nettoyage de l'Antre de Minerve.",
      "image": "https://media.rawg.io/media/achievements/5d7/5d7fd9830ce0dec47b31c42f67baeec1.jpg",
      "percent": "0.50"
    }
  ]
}