{
  "count": 50,
  "next": "https://api.rawg.io/api/games/1/youtube?page=2",
  "previous": null,
  "results": [
    {
      "id": 9687247,
      "external_id": "-q_UguhDAu0",
      "channel_id": "UCYI18PHXSnK8d3aJem4XueA",
      "channel_title": "Wrestling Video Games",
      "name": "D-Generation X Cutscenes | WWE Championship",
      "description": "DX unites when Triple H and Shawn Michaels team up to take on Evolution, but then on to battle each other for the WWE title at WrestleMania. From WWE ...",
      "created": "2018-02-26T22:21:59Z",
      "view_count": 1144118,
      "comments_count": 359,
      "like_count": 6765,
      "dislike_count": 426,
      "favorite_count": 0,
      "thumbnails": {
        "high": {
          "url": "https://i.ytimg.com/vi/-q_UguhDAu0/hqdefault.jpg",
          "width": 480,
          "height": 360
        },
        "medium": {
          "url": "https://i.ytimg.com/vi/-q_UguhDAu0/mqdefault.jpg",
          "width": 320,
          "height": 180
        },
        "default": {
          "url": "https://i.ytimg.com/vi/-q_UguhDAu0/default.jpg",
          "width": 120,
          "height": 90
        },
        "sddefault": {
          "url": "https://i.ytimg.com/vi/-q_UguhDAu0/sddefault.jpg",
          "width": 640,
          "height": 480
        },
        "maxresdefault": {
          "url": "https://i.ytimg.com/vi/-q_UguhDAu0/maxresdefault.jpg"
        }
      }
    },
    {
      "id": 24024747,
      "external_id": "_2dZSrGBAL8",
      "channel_id": "UCTM1VN-Jz_JpfIFX0yK8u_Q",
      "channel_title": "TeemingTubbyEmu",
      "name": "WWE 12 Story Mode - Entire D-Generation X Story #1 (Custom Story)",
      "description": "LEAVE A LIKE to SHOW YOUR SUPPORT! PREVIOUS/NEXT Video links may be missing! ❖LIVESTREAMS on Twitch! http://www.twitch.tv/tubbyemu ❖Get The ...",
      "created": "2012-08-05T22:07:21Z",
      "view_count": 255355,
      "comments_count": 262,
      "like_count": 1460,
      "dislike_count": 131,
      "favorite_count": 0,
      "thumbnails": {
        "high": {
          "url": "https://i.ytimg.com/vi/_2dZSrGBAL8/hqdefault.jpg",
          "width": 480,
          "height": 360
        },
        "medium": {
          "url": "https://i.ytimg.com/vi/_2dZSrGBAL8/mqdefault.jpg",
          "width": 320,
          "height": 180
        },
        "default": {
          "url": "https://i.ytimg.com/vi/_2dZSrGBAL8/default.jpg",
          "width": 120,
          "height": 90
        },
        "sddefault": {
          "url": "https://i.ytimg.com/vi/_2dZSrGBAL8/hqdefault.jpg",
          "width": 480,
          "height": 360
        },
        "maxresdefault": {
          "url": "https://i.ytimg.com/vi/_2dZSrGBAL8/hqdefault.jpg",
          "width": 480,
          "height": 360
        }
      }
    },
    {
      "id": 24879513,
      "external_id": "4Av2iK8uyJk",
      "channel_id": "UCvnHkuLwiGw-u5c9azkOx2g",
      "channel_title": "Vishal Techgamers",
      "name": "WWE Mayhem D-Generation X VS Brothers of Destruction",
      "description": "Hello Friends thanks for supporting so much to my channel and I ensure you that we will increase our Gaming family. Thank You Guys. God Bless ... .. . If You ...",
      "created": "2018-11-04T09:13:28Z",
      "view_count": 136797,
      "comments_count": 68,
      "like_count": 1463,
      "dislike_count": 171,
      "favorite_count": 0,
      "thumbnails": {
        "high": {
          "url": "https://i.ytimg.com/vi/4Av2iK8uyJk/hqdefault.jpg",
          "width": 480,
          "height": 360
        },
        "medium": {
          "url": "https://i.ytimg.com/vi/4Av2iK8uyJk/mqdefault.jpg",
          "width": 320,
          "height": 180
        },
        "default": {
          "url": "https://i.ytimg.com/vi/4Av2iK8uyJk/default.jpg",
          "width": 120,
          "height": 90
        },
        "sddefault": {
          "url": "https://i.ytimg.com/vi/4Av2iK8uyJk/sddefault.jpg",
          "width": 640,
          "height": 480
        },
        "maxresdefault": {
          "url": "https://i.ytimg.com/vi/4Av2iK8uyJk/hqdefault.jpg",
          "width": 480,
          "height": 360
        }
      }
    },
    {
      "id": 20035202,
      "external_id": "EpD0aPruO8k",
      "channel_id": "UChYCUXvjwL4D8SWeeWh_IDA",
      "channel_title": "Bestintheworld",
      "name": "WWE 2K19 - DX Entrance, Signature, Finisher &amp; Victory Scene! ( Updated Attire )",
      "description": "The official entrance of D-generation X with entrance, signature & victory scene in WWE 2K19. #WWE2K19 #WWEGAMES #WWE2K Order WWE 2K19 Today ...",
      "created": "2018-10-09T17:45:24Z",
      "view_count": 89852,
      "comments_count": 108,
      "like_count": 1313,
      "dislike_count": 40,
      "favorite_count": 0,
      "thumbnails": {
        "high": {
          "url": "https://i.ytimg.com/vi/EpD0aPruO8k/hqdefault.jpg",
          "width": 480,
          "height": 360
        },
        "medium": {
          "url": "https://i.ytimg.com/vi/EpD0aPruO8k/mqdefault.jpg",
          "width": 320,
          "height": 180
        },
        "default": {
          "url": "https://i.ytimg.com/vi/EpD0aPruO8k/default.jpg",
          "width": 120,
          "height": 90
        },
        "sddefault": {
          "url": "https://i.ytimg.com/vi/EpD0aPruO8k/sddefault.jpg",
          "width": 640,
          "height": 480
        },
        "maxresdefault": {
          "url": "https://i.ytimg.com/vi/EpD0aPruO8k/maxresdefault.jpg"
        }
      }
    },
    {
      "id": 24879509,
      "external_id": "59PI3IjFOs4",
      "channel_id": "UCC1Ipa4NRoBviVO4MwF19tA",
      "channel_title": "AntDaGamer*ADG",
      "name": "WWE 2K19 | How To Play As DX / Degeneration-X [Step By Step In Depth Tutorial]",
      "description": "DX #HowTo #WWE 2K19 : How To Play As DX aka Degeneration-X step by step in-depth tutorial. Support By Checking out https://www.antdagamer.com, ...",
      "created": "2018-10-10T20:38:57Z",
      "view_count": 38797,
      "comments_count": 91,
      "like_count": 430,
      "dislike_count": 24,
      "favorite_count": 0,
      "thumbnails": {
        "high": {
          "url": "https://i.ytimg.com/vi/59PI3IjFOs4/hqdefault.jpg",
          "width": 480,
          "height": 360
        },
        "medium": {
          "url": "https://i.ytimg.com/vi/59PI3IjFOs4/mqdefault.jpg",
          "width": 320,
          "height": 180
        },
        "default": {
          "url": "https://i.ytimg.com/vi/59PI3IjFOs4/default.jpg",
          "width": 120,
          "height": 90
        },
        "sddefault": {
          "url": "https://i.ytimg.com/vi/59PI3IjFOs4/sddefault.jpg",
          "width": 640,
          "height": 480
        },
        "maxresdefault": {
          "url": "https://i.ytimg.com/vi/59PI3IjFOs4/maxresdefault.jpg"
        }
      }
    },
    {
      "id": 9687236,
      "external_id": "hOvlCFvtuZY",
      "channel_id": "UCVi6ofFy7QyJJrZ9l0-fwbQ",
      "channel_title": "World-of-Longplays",
      "name": "Amiga Longplay D/Generation (CD32)",
      "description": "http://www.recordedamigagames.org Played by: Eino Gameplay begins at 2:06. This CD32 version seems to pretty much identical with the AGA version. I played ...",
      "created": "2010-07-12T03:37:45Z",
      "view_count": 31411,
      "comments_count": 43,
      "like_count": 242,
      "dislike_count": 1,
      "favorite_count": 0,
      "thumbnails": {
        "high": {
          "url": "https://i.ytimg.com/vi/hOvlCFvtuZY/hqdefault.jpg",
          "width": 480,
          "height": 360
        },
        "medium": {
          "url": "https://i.ytimg.com/vi/hOvlCFvtuZY/mqdefault.jpg",
          "width": 320,
          "height": 180
        },
        "default": {
          "url": "https://i.ytimg.com/vi/hOvlCFvtuZY/default.jpg",
          "width": 120,
          "height": 90
        },
        "sddefault": {
          "url": "https://i.ytimg.com/vi/hOvlCFvtuZY/hqdefault.jpg",
          "width": 480,
          "height": 360
        },
        "maxresdefault": {
          "url": "https://i.ytimg.com/vi/hOvlCFvtuZY/hqdefault.jpg",
          "width": 480,
          "height": 360
        }
      }
    },
    {
      "id": 23948342,
      "external_id": "tQ3NPTrozGg",
      "channel_id": "UCFru6jm7w81BAJYFlRtfxUw",
      "channel_title": "Mr LT",
      "name": "WWE 2K19 | THE SHIELD vs D-GENERATION X",
      "description": "In this episode of wwe 2k19 we have the shield vs DX, roman reigns, deam ambrose and seth rollins will face shawn michaels, triple h and x-pac!",
      "created": "2019-03-29T02:00:04Z",
      "view_count": 29961,
      "comments_count": 67,
      "like_count": 441,
      "dislike_count": 19,
      "favorite_count": 0,
      "thumbnails": {
        "high": {
          "url": "https://i.ytimg.com/vi/tQ3NPTrozGg/hqdefault.jpg",
          "width": 480,
          "height": 360
        },
        "medium": {
          "url": "https://i.ytimg.com/vi/tQ3NPTrozGg/mqdefault.jpg",
          "width": 320,
          "height": 180
        },
        "default": {
          "url": "https://i.ytimg.com/vi/tQ3NPTrozGg/default.jpg",
          "width": 120,
          "height": 90
        },
        "sddefault": {
          "url": "https://i.ytimg.com/vi/tQ3NPTrozGg/sddefault.jpg",
          "width": 640,
          "height": 480
        },
        "maxresdefault": {
          "url": "https://i.ytimg.com/vi/tQ3NPTrozGg/maxresdefault.jpg"
        }
      }
    },
    {
      "id": 24879512,
      "external_id": "t_4rXsI1aQ8",
      "channel_id": "UCTM1VN-Jz_JpfIFX0yK8u_Q",
      "channel_title": "TeemingTubbyEmu",
      "name": "WWE 12 Story Mode - Entire D-Generation X Story #4 (Custom Story)",
      "description": "LEAVE A LIKE to SHOW YOUR SUPPORT! PREVIOUS/NEXT Video links may be missing! ❖LIVESTREAMS on Twitch! http://www.twitch.tv/tubbyemu ❖Get The ...",
      "created": "2012-08-15T17:00:13Z",
      "view_count": 24783,
      "comments_count": 58,
      "like_count": 348,
      "dislike_count": 9,
      "favorite_count": 0,
      "thumbnails": {
        "high": {
          "url": "https://i.ytimg.com/vi/t_4rXsI1aQ8/hqdefault.jpg",
          "width": 480,
          "height": 360
        },
        "medium": {
          "url": "https://i.ytimg.com/vi/t_4rXsI1aQ8/mqdefault.jpg",
          "width": 320,
          "height": 180
        },
        "default": {
          "url": "https://i.ytimg.com/vi/t_4rXsI1aQ8/default.jpg",
          "width": 120,
          "height": 90
        },
        "sddefault": {
          "url": "https://i.ytimg.com/vi/t_4rXsI1aQ8/hqdefault.jpg",
          "width": 480,
          "height": 360
        },
        "maxresdefault": {
          "url": "https://i.ytimg.com/vi/t_4rXsI1aQ8/hqdefault.jpg",
          "width": 480,
          "height": 360
        }
      }
    },
    {
      "id": 24879507,
      "external_id": "Nt3tkjfdTWw",
      "channel_id": "UCvnHkuLwiGw-u5c9azkOx2g",
      "channel_title": "Vishal Techgamers",
      "name": "WWE Mayhem gameplay of D-Generation X &quot;Are you Ready&quot;",
      "description": "Like Share Comment Subscribe #VishalTGMayhem #WWEMayhen.",
      "created": "2020-02-10T02:24:38Z",
      "view_count": 22886,
      "comments_count": 16,
      "like_count": 376,
      "dislike_count": 19,
      "favorite_count": 0,
      "thumbnails": {
        "high": {
          "url": "https://i.ytimg.com/vi/Nt3tkjfdTWw/hqdefault.jpg",
          "width": 480,
          "height": 360
        },
        "medium": {
          "url": "https://i.ytimg.com/vi/Nt3tkjfdTWw/mqdefault.jpg",
          "width": 320,
          "height": 180
        },
        "default": {
          "url": "https://i.ytimg.com/vi/Nt3tkjfdTWw/default.jpg",
          "width": 120,
          "height": 90
        },
        "sddefault": {
          "url": "https://i.ytimg.com/vi/Nt3tkjfdTWw/sddefault.jpg",
          "width": 640,
          "height": 480
        },
        "maxresdefault": {
          "url": "https://i.ytimg.com/vi/Nt3tkjfdTWw/hqdefault.jpg",
          "width": 480,
          "height": 360
        }
      }
    },
    {
      "id": 21782022,
      "external_id": "-oA3R8j3CkM",
      "channel_id": "UCW7RdWlb5YD6Rsw1JoYF1qg",
      "channel_title": "IDO Gaming",
      "name": "The Undertaker &amp; John Cena  vs D-Generation X- WWE Tag Team Hell In A Cell  Match-WWE-2K18-Gameplay",
      "description": "The Undertaker & John Cena vs D-Generation X- WWE Tag Team Hell In A Cell Match -- WWE-2K18-Gameplay WWE 2K18 is a professional wrestling video ...",
      "created": "2018-05-09T06:23:48Z",
      "view_count": 19804,
      "comments_count": 3,
      "like_count": 220,
      "dislike_count": 5,
      "favorite_count": 0,
      "thumbnails": {
        "high": {
          "url": "https://i.ytimg.com/vi/-oA3R8j3CkM/hqdefault.jpg",
          "width": 480,
          "height": 360
        },
        "medium": {
          "url": "https://i.ytimg.com/vi/-oA3R8j3CkM/mqdefault.jpg",
          "width": 320,
          "height": 180
        },
        "default": {
          "url": "https://i.ytimg.com/vi/-oA3R8j3CkM/default.jpg",
          "width": 120,
          "height": 90
        },
        "sddefault": {
          "url": "https://i.ytimg.com/vi/-oA3R8j3CkM/sddefault.jpg",
          "width": 640,
          "height": 480
        },
        "maxresdefault": {
          "url": "https://i.ytimg.com/vi/-oA3R8j3CkM/hqdefault.jpg",
          "width": 480,
          "height": 360
        }
      }
    }
  ]
}