{
  "count": 19,
  "next": "https://api.rawg.io/api/genres?page=2&page_size=2",
  "previous": null,
  "results": [
    {
      "id": 4,
      "name": "Action",
      "slug": "action",
      "games_count": 95210,
      "image_background": "https://media.rawg.io/media/games/8d6/8d69eb6c32ed6acfd75f82d532144993.jpg",
      "games": [
        {
          "id": 3498,
          "slug": "grand-theft-auto-v",
          "name": "Grand Theft Auto V",
          "added": 12781
        },
        {
          "id": 3328,
          "slug": "the-witcher-3-wild-hunt",
          "name": "The Witcher 3: Wild Hunt",
          "added": 10966
        },
        {
          "id": 5286,
          "slug": "tomb-raider",
          "name": "Tomb Raider (2013)",
          "added": 10141
        },
        {
          "id": 5679,
          "slug": "the-elder-scrolls-v-skyrim",
          "name": "The Elder Scrolls V: Skyrim",
          "added": 10011
        },
        {
          "id": 12020,
          "slug": "left-4-dead-2",
          "name": "Left 4 Dead 2",
          "added": 9642
        },
        {
          "id": 802,
          "slug": "borderlands-2",
          "name": "Borderlands 2",
          "added": 9614
        }
      ]
    },
    {
      "id": 51,
      "name": "Indie",
      "slug": "indie",
      "games_count": 30470,
      "image_background": "https://media.rawg.io/media/games/713/713269608dc8f2f40f5a670a14b2de94.jpg",
      "games": [
        {
          "id": 1030,
          "slug": "limbo",
          "name": "Limbo",
          "added": 8719
        },
        {
          "id": 3272,
          "slug": "rocket-league",
          "name": "Rocket League",
          "added": 7285
        },
        {
          "id": 422,
          "slug": "terraria",
          "name": "Terraria",
          "added": 6819
        },
        {
          "id": 13668,
          "slug": "amnesia-the-dark-descent",
          "name": "Amnesia: The Dark Descent",
          "added": 6441
        },
        {
          "id": 3612,
          "slug": "hotline-miami",
          "name": "Hotline Miami",
          "added": 6409
        },
        {
          "id": 3790,
          "slug": "outlast",
          "name": "Outlast",
          "added": 6292
        }
      ]
    }
  ]
}