{
  "count": 51,
  "next": "https://api.rawg.io/api/platforms?page=2&page_size=2",
  "previous": null,
  "results": [
    {
      "id": 4,
      "name": "PC",
      "slug": "pc",
      "games_count": 252690,
      "image_background": "https://media.rawg.io/media/games/84d/84da2ac3fdfc6507807a1808595afb12.jpg",
      "image": null,
      "year_start": null,
      "year_end": null,
      "games": [
        {
          "id": 3498,
          "slug": "grand-theft-auto-v",
          "name": "Grand Theft Auto V",
          "added": 12781
        },
        {
          "id": 4200,
          "slug": "portal-2",
          "name": "Portal 2",
          "added": 11199
        },
        {
          "id": 3328,
          "slug": "the-witcher-3-wild-hunt",
          "name": "The Witcher 3: Wild Hunt",
          "added": 10966
        },
        {
          "id": 5286,
          "slug": "tomb-raider",
          "name": "Tomb Raider (2013)",
          "added": 10141
        },
        {
          "id": 5679,
          "slug": "the-elder-scrolls-v-skyrim",
          "name": "The Elder Scrolls V: Skyrim",
          "added": 10011
        },
        {
          "id": 12020,
          "slug": "left-4-dead-2",
          "name": "Left 4 Dead 2",
          "added": 9642
        }
      ]
    },
    {
      "id": 187,
      "name": "PlayStation 5",
      "slug": "playstation5",
      "games_count": 74,
      "image_background": "https://media.rawg.io/media/games/a8b/a8bf6f31bfbdaf7d4b86c1953c62cee0.jpg",
      "image": null,
      "year_start": 2020,
      "year_end": null,
      "games": [
        {
          "id": 3498,
          "slug": "grand-theft-auto-v",
          "name": "Grand Theft Auto V",
          "added": 12781
        },
        {
          "id": 32,
          "slug": "destiny-2",
          "name": "Destiny 2",
          "added": 7260
        },
        {
          "id": 766,
          "slug": "warframe",
          "name": "Warframe",
          "added": 7034
        },
        {
          "id": 51325,
          "slug": "the-last-of-us-part-2",
          "name": "The Last of Us Part II",
          "added": 3367
        },
        {
          "id": 58812,
          "slug": "control",
          "name": "Control",
          "added": 2970
        },
        {
          "id": 41494,
          "slug": "cyberpunk-2077",
          "name": "Cyberpunk 2077",
          "added": 2956
        }
      ]
    }
  ]
}